{"_embedded":{"items":[{"expand":"relatedItems","id":"1a52e7fe27caf476d5d7595004c4b911","_links":{"self":{"href":"https://api.nb.no:443/catalog/v1/items/1a52e7fe27caf476d5d7595004c4b911"},"mods":{"href":"https://api.nb.no:443/catalog/v1/metadata/1a52e7fe27caf476d5d7595004c4b911/mods"},"dublincore":{"href":"https://api.nb.no:443/catalog/v1/metadata/1a52e7fe27caf476d5d7595004c4b911/dublincore"},"presentation":{"href":"https://api.nb.no:443/catalog/v1/iiif/1a52e7fe27caf476d5d7595004c4b911/manifest"},"enw":{"href":"https://api.nb.no:443/catalog/v1/reference/1a52e7fe27caf476d5d7595004c4b911/enw"},"ris":{"href":"https://api.nb.no:443/catalog/v1/reference/1a52e7fe27caf476d5d7595004c4b911/ris"},"wiki":{"href":"https://api.nb.no:443/catalog/v1/reference/1a52e7fe27caf476d5d7595004c4b911/wiki"},"relatedItems":{"href":"https://api.nb.no:443/catalog/v1/items/1a52e7fe27caf476d5d7595004c4b911/relatedItems"}},"accessInfo":{"accessAllowedFrom":"NB","accessInfoLastModified":"2025-08-07T22:02:40.530Z","isDigital":false,"isPublicDomain":false,"license":"copyrighted","viewability":"NONE"},"metadata":{"contentClasses":["restricted","COPYRIGHTED"],"creators":["Musô Soseki"],"identifiers":{"sesamId":"1a52e7fe27caf476d5d7595004c4b911","oaiId":"oai:nb.bibsys.no:990713147334702202"},"languages":[{"code":"nob"}],"mediaTypes":["artikler"],"metadataClasses":["public"],"originInfo":{"issued":"2007","firstIndexTime":"2025-08-07T20:03:10.050Z","indexLastModified":"2025-08-07T22:02:40.533Z"},"pageCount":0,"title":"Drømmesamtaler","titleInfos":[{"title":"Drømmesamtaler"}]}},{"id":"623db93e6322d223b4d8882f6c8f3a7e","_links":{"self":{"href":"https://api.nb.no:443/catalog/v1/items/623db93e6322d223b4d8882f6c8f3a7e"},"mods":{"href":"https://api.nb.no:443/catalog/v1/metadata/623db93e6322d223b4d8882f6c8f3a7e/mods"},"dublincore":{"href":"https://api.nb.no:443/catalog/v1/metadata/623db93e6322d223b4d8882f6c8f3a7e/dublincore"},"presentation":{"href":"https://api.nb.no:443/catalog/v1/iiif/623db93e6322d223b4d8882f6c8f3a7e/manifest"},"enw":{"href":"https://api.nb.no:443/catalog/v1/reference/623db93e6322d223b4d8882f6c8f3a7e/enw"},"ris":{"href":"https://api.nb.no:443/catalog/v1/reference/623db93e6322d223b4d8882f6c8f3a7e/ris"},"wiki":{"href":"https://api.nb.no:443/catalog/v1/reference/623db93e6322d223b4d8882f6c8f3a7e/wiki"},"thumbnail_custom":{"href":"https://www.nb.no/services/image/resolver/URN:NBN:no-nb_digibok_2018102505106_C1/full/{width},{height}/0/native.jpg","templated":true},"thumbnail_large":{"href":"https://www.nb.no/services/image/resolver/URN:NBN:no-nb_digibok_2018102505106_C1/full/0,200/0/native.jpg"},"thumbnail_medium":{"href":"https://www.nb.no/services/image/resolver/URN:NBN:no-nb_digibok_2018102505106_C1/full/0,128/0/native.jpg"},"thumbnail_small":{"href":"https://www.nb.no/services/image/resolver/URN:NBN:no-nb_digibok_2018102505106_C1/full/0,64/0/native.jpg"}},"accessInfo":{"accessAllowedFrom":"NORWAY","accessInfoLastModified":"2024-01-04T14:05:24.877Z","isDigital":true,"isPublicDomain":false,"legalDepositLoginText":"4 lisenser for Feide-brukere ved norske universitet og høyskoler.","license":"bokhylla","viewability":"NONE"},"metadata":{"contentClasses":["legaldeposit","bokhylla","jp2","bokhyllalisens"],"creators":["Auestad, Reiko Abe"],"geographic":{"city":"Oslo"},"identifiers":{"sesamId":"623db93e6322d223b4d8882f6c8f3a7e","oaiId":"oai:nb.bibsys.no:999614219594702202","urn":"URN:NBN:no-nb_digibok_2018102505106"},"languages":[{"code":"eng"}],"mediaTypes":["bøker"],"metadataClasses":["public"],"originInfo":{"publisher":"Department of East European and Oriental Studies, University of Oslo","issued":"1994","firstIndexTime":"2025-06-11T14:56:46.975Z","firstDigitalContentTime":"2018-11-08T03:08:43.755Z","indexLastModified":"2026-02-25T15:13:38.603Z"},"pageCount":229,"subjectName":["Natsume, Sôseki"],"title":"Natsume Sôseki's Kôjin (The wayfarer) and Meian (Light and darkness) reconsidered : textual analysis with emphasis on native constraints","titleInfos":[{"title":"Natsume Sôseki's Kôjin (The wayfarer) and Meian (Light and darkness) reconsidered : textual analysis with emphasis on native constraints"}]}},{"id":"092e7797ac357afda63bb90106615117","_links":{"self":{"href":"https://api.nb.no:443/catalog/v1/items/092e7797ac357afda63bb90106615117"},"mods":{"href":"https://api.nb.no:443/catalog/v1/metadata/092e7797ac357afda63bb90106615117/mods"},"dublincore":{"href":"https://api.nb.no:443/catalog/v1/metadata/092e7797ac357afda63bb90106615117/dublincore"},"presentation":{"href":"https://api.nb.no:443/catalog/v1/iiif/092e7797ac357afda63bb90106615117/manifest"},"enw":{"href":"https://api.nb.no:443/catalog/v1/reference/092e7797ac357afda63bb90106615117/enw"},"ris":{"href":"https://api.nb.no:443/catalog/v1/reference/092e7797ac357afda63bb90106615117/ris"},"wiki":{"href":"https://api.nb.no:443/catalog/v1/reference/092e7797ac357afda63bb90106615117/wiki"}},"accessInfo":{"accessAllowedFrom":"NB","accessInfoLastModified":"2025-03-27T00:57:28.911Z","isDigital":false,"isPublicDomain":false,"license":"copyrighted","viewability":"NONE"},"metadata":{"contentClasses":["restricted","COPYRIGHTED"],"creators":["Auestad, Reiko Abe"],"geographic":{"city":"Wiesbaden"},"identifiers":{"isbn10":["3447041226"],"sesamId":"092e7797ac357afda63bb90106615117","oaiId":"oai:nb.bibsys.no:999915779814702202"},"languages":[{"code":"eng"}],"mediaTypes":["bøker"],"metadataClasses":["public"],"originInfo":{"publisher":"Harrassowits","issued":"1998","firstIndexTime":"2025-05-17T09:01:41.365Z","indexLastModified":"2025-06-12T06:41:38.714Z"},"pageCount":0,"series":["Iaponia insula"],"subjectName":["Natsume, Sôseki"],"title":"Rereading Sôseki : three early twentieth-century Japanese novels","titleInfos":[{"title":"Rereading Sôseki : three early twentieth-century Japanese novels"}]}}]},"_links":{"self":{"href":"https://api.nb.no/catalog/v1/items?q=soseki&page=0&size=3"},"next":{"href":"https://api.nb.no/catalog/v1/items?q=soseki&page=1&size=3"},"last":{"href":"https://api.nb.no/catalog/v1/items?q=soseki&page=50&size=3"}},"page":{"number":0,"size":3,"totalElements":230,"totalPages":77}}